<svg width="16" height="15" viewBox="0 0 16 15" fill="none" xmlns="http://www.w3.org/2000/svg">
<path d="M12.4946 0.521484H3.51881C1.95457 0.521484 0.744141 1.70712 0.744141 3.23932V6.1578V12.0312C0.744141 13.5634 1.95457 14.7491 3.51881 14.7491H12.4946C14.0588 14.7491 15.2693 13.5634 15.2693 12.0312V6.1578V3.23932C15.2693 1.70712 14.0588 0.521484 12.4946 0.521484ZM11.1352 2.12665H13.2953L13.5933 2.10841V2.43674V4.55264H11.1352V2.12665ZM5.92104 6.1578C6.38659 5.51938 7.15009 5.09985 8.0067 5.09985C8.86331 5.09985 9.62681 5.51938 10.0924 6.1578C10.3903 6.57733 10.5765 7.08807 10.5765 7.63528C10.5765 9.02156 9.42197 10.1525 8.0067 10.1525C6.59144 10.1525 5.43687 9.02156 5.43687 7.63528C5.43687 7.08807 5.62309 6.57733 5.92104 6.1578ZM13.9657 12.0312C13.9657 12.7973 13.2767 13.4722 12.4946 13.4722H3.51881C2.73669 13.4722 2.04768 12.7973 2.04768 12.0312V6.17604H4.30093C4.11471 6.54085 4.00298 7.10631 4.00298 7.63528C4.00298 9.8059 5.79069 11.557 8.0067 11.557C10.2227 11.557 12.0104 9.78766 12.0104 7.63528C12.0104 7.12455 11.8987 6.54085 11.7125 6.17604H13.9657V12.0312Z" fill="#E4AA00"/>
</svg>
