<svg width="14" height="20" viewBox="0 0 14 20" fill="none" xmlns="http://www.w3.org/2000/svg">
<path d="M1.23145 1.44044L12.4747 9.62546C12.749 9.82514 12.749 10.2342 12.4747 10.4339L1.23145 18.6191" stroke="currentColor"  stroke-width="1.5" stroke-linecap="round"/>
</svg>
