<svg width="6" height="14" viewBox="0 0 6 14" fill="none" xmlns="http://www.w3.org/2000/svg">
<path d="M2.71094 0.484375V7.33186" stroke="#999999" stroke-width="2.0361"/>
<circle cx="2.77536" cy="11.5389" r="1.6829" transform="rotate(-53.8674 2.77536 11.5389)" fill="#999999"/>
</svg>
