<svg width="15" height="15" viewBox="0 0 15 15" xmlns="http://www.w3.org/2000/svg">
<path fill-rule="evenodd" d="M12.9935 4.26777H11.5769V0.726135H3.07686V4.26777H1.66016C0.877752 4.26777 0.243488 4.90203 0.243488 5.68444V11.3511C0.243488 12.1335 0.877752 12.7678 1.66016 12.7678H3.07686V14.8928H11.5769V12.7678H12.9935C13.7759 12.7678 14.4102 12.1335 14.4102 11.3511V5.68444C14.4102 4.90203 13.7759 4.26777 12.9935 4.26777ZM4.49353 4.26777H10.1602V2.1428H4.49353V4.26777ZM1.66016 11.3511H3.07686V9.93443H11.5769V11.3511H12.9935V5.68444H1.66016V11.3511ZM4.49349 11.3511H10.1602V13.4761H4.49349V11.3511ZM2.36849 7.10113C2.36849 6.70993 2.68562 6.3928 3.07682 6.3928C3.46802 6.3928 3.78516 6.70993 3.78516 7.10113C3.78516 7.49234 3.46802 7.80947 3.07682 7.80947C2.68562 7.80947 2.36849 7.49234 2.36849 7.10113Z"/>
</svg>
